# Defines each particle effect
Magic Missile
 count: 10
 lights: true
 affected by lights: true
 force: 1,1,1
 force from start: true
 start colour: 20,160,200,255
 end colour: 100,160,200,0
 duration: 800
 duration randomiser: 300
 position lower: -0.1,-0.1,-0.1
 position upper: 0.1,0.1,0.1
 start size: 0.075,0.075
 end size: 0.02,0.02

Magic Missile
 count: 80
 lights: true
 affected by lights: true
 friction: 2.5,2.5,2.5
 force lower: -0.2,-0.2,-0.2
 force upper: 0.2,0.2,0.2
 start colour: 20,160,200,255
 end colour: 100,160,200,0
 duration: 600
 duration randomiser: 400
 collisions: true
 position lower: -0.1,-0.1,-0.1
 position upper: 0.1,0.1,0.1
 start size: 0.1,0.1
 end size: 0.02,0.02

Magic Missile
 count: 100
 lights: true
 affected by lights: true
 burst: true
 force: 2,2,2
 force from start: true
 friction: 2.5,2.5,2.5
 start colour: 20,160,200,255
 end colour: 20,160,200,0
 duration: 600
 duration randomiser: 600
 collisions: true
 position lower: -0.1,-0.1,-0.1
 position upper: 0.1,0.1,0.1
 start size: 0.1,0.1
 end size: 0.02,0.02
 only live once: true

Magic Explosion
 count: 200
 lights: true
 force: 1,0,1
 force lower: -0.25,0,0.25
 force upper: 0.25,0.1,0.25
 force from start: true
 start colour: 160,100,50,255
 end colour: 60,100,160,50
 duration: 300
 duration randomiser: 300
 position lower: -0.25,0,-0.25
 position upper: 0.25,0.1,0.25
 start size: 0.1,0.1
 end size: 0.01,0.01

Magic Explosion
 count: 1
 start colour: 0,0,0,0
 end colour: 0,0,0,0
 duration: 1000
 duration randomiser: 0
 start size: 0,0
 end size: 0,0

Magic Explosion
 count: 100
 lights: true
 burst: true
 force: 3,1,3
 force lower: -0.25,0,-0.25
 force upper: 0.25,0.1,0.25
 force from start: true
 start colour: 160,100,50,255
 end colour: 60,100,160,50
 duration: 100
 duration randomiser: 600
 position lower: -0.25,0,-0.25
 position upper: 0.25,0.1,0.25
 start size: 0.1,0.1
 end size: 0.01,0.01
 only live once: true

Barrier
 count: 10
 affected by lights: true
 force: 0,0.75,0
 force from start: true
 start colour: 20,100,150,200
 end colour: 20,100,150,50
 duration: 600
 duration randomiser: 300
 position lower: -0.1,-0.1,-0.1
 position upper: 0.1,0.1,0.1
 start size: 0.04,0.04
 end size: 0.02,0.02

Barrier
 count: 80
 affected by lights: true
 force: 0,0.75,0
 friction: 2.5,2.5,2.5
 start colour: 20,100,150,200
 end colour: 20,100,150,50
 duration: 600
 duration randomiser: 400
 collisions: true
 position lower: -0.1,-0.1,-0.1
 position upper: 0.1,0.1,0.1
 start size: 0.04,0.04
 end size: 0.02,0.02

Barrier
 count: 10
 affected by lights: true
 burst: true
 force: 0.5,0.5,0.5
 force from start: true
 friction: 2.5,2.5,2.5
 start colour: 20,100,150,200
 end colour: 20,100,150,50
 duration: 600
 duration randomiser: 500
 collisions: true
 position lower: -0.1,-0.1,-0.1
 position upper: 0.1,0.1,0.1
 start size: 0.04,0.04
 end size: 0.02,0.02
 only live once: true

Shield
 count: 50
 start colour: 20,100,150,255
 end colour: 20,100,150,50
 duration: 1200
 duration randomiser: 40
 position lower: -0.1,-0.1,-0.1
 position upper: 0.1,0.1,0.1
 minimum start distance: 0.36
 start size: 0.04,0.04
 end size: 0.03,0.03

Damage Transfer
 count: 50
 force: 0,0.75,0
 start colour: 50,180,120,255
 end colour: 50,180,120,180
 duration: 600
 duration randomiser: 300
 position lower: -0.25,-0.4,-0.25
 position upper: 0.25,-0.3,0.25
 start size: 0.0625,0.0625
 end size: 0.05,0.05

Damage Transfer
 count: 50
 force: 0,0.75,0
 start colour: 50,180,120,255
 end colour: 50,180,120,180
 duration: 600
 duration randomiser: 300
 position lower: -0.25,-0.4,-0.25
 position upper: 0.25,-0.3,0.25
 start size: 0.0625,0.0625
 end size: 0.05,0.05

Blood Bolt
 count: 10
 lights: true
 affected by lights: true
 force: 1,1,1
 force from start: true
 start colour: 144,12,12,255
 end colour: 80,12,12,0
 duration: 800
 duration randomiser: 300
 position lower: -0.1,-0.1,-0.1
 position upper: 0.1,0.1,0.1
 start size: 0.075,0.075
 end size: 0.02,0.02

Blood Bolt
 count: 60
 lights: true
 affected by lights: true
 friction: 2.5,2.5,2.5
 force lower: -0.2,-0.2,-0.2
 force upper: 0.2,0.2,0.2
 start colour: 144,12,12,255
 end colour: 80,12,12,0
 duration: 600
 duration randomiser: 400
 collisions: true
 position lower: -0.1,-0.1,-0.1
 position upper: 0.1,0.1,0.1
 start size: 0.1,0.1
 end size: 0.02,0.02

Blood Bolt
 count: 80
 lights: true
 affected by lights: true
 burst: true
 force: 2,2,2
 force from start: true
 friction: 2.5,2.5,2.5
 start colour: 144,12,12,255
 end colour: 80,12,12,0
 duration: 600
 duration randomiser: 600
 collisions: true
 position lower: -0.1,-0.1,-0.1
 position upper: 0.1,0.1,0.1
 start size: 0.1,0.1
 end size: 0.02,0.02
 only live once: true

